…
```r
comic_characters
```


--- .class #id

## Comic Characters Data


```
## # A tibble: 23,272 x 16
##    publisher page_id name  urlslug id    align eye   hair  sex   gsm  
##    <chr>       <int> <chr> <chr>   <chr> <ord> <chr> <chr> <chr> <chr>
##  1 Marvel       1678 Spid~ "\\/Sp~ Secr~ Good~ Haze~ Brow~ Male~ <NA> 
##  2 Marvel       7139 Capt~ "\\/Ca~ Publ~ Good~ Blue~ Whit~ Male~ <NA> 
##  3 Marvel      64786 "Wol~ "\\/Wo~ Publ~ <NA>  Blue~ Blac~ Male~ <NA> 
##  4 Marvel       1868 "Iro~ "\\/Ir~ Publ~ Good~ Blue~ Blac~ Male~ <NA> 
##  5 Marvel       2460 Thor~ "\\/Th~ No D~ Good~ Blue~ Blon~ Male~ <NA> 
##  6 Marvel       2458 Benj~ "\\/Be~ Publ~ Good~ Blue~ No H~ Male~ <NA> 
##  7 Marvel       2166 Reed~ "\\/Re~ Publ~ Good~ Brow~ Brow~ Male~ <NA> 
##  8 Marvel       1833 Hulk~ "\\/Hu~ Publ~ Good~ Brow~ Brow~ Male~ <NA> 
##  9 Marvel      29481 Scot~ "\\/Sc~ Publ~ <NA>  Brow~ Brow~ Male~ <NA> 
## 10 Marvel       1837 Jona~ "\\/Jo~ Publ~ Good~ Blue~ Blon~ Male~ <NA> 
## # ... with 23,262 more rows, and 6 more variables: alive <chr>,
## #   appearances <int>, first_appearance <chr>, month <chr>, year <int>,
## #   date <date>
```
…
