…
--- .class #id


## Another Example




```
## # A tibble: 142 x 3
##    country       min   max
##    <fct>       <dbl> <dbl>
##  1 Afghanistan  28.8  43.8
##  2 Albania      55.2  76.4
##  3 Algeria      43.1  72.3
##  4 Angola       30.0  42.7
##  5 Argentina    62.5  75.3
##  6 Australia    69.1  81.2
##  7 Austria      66.8  79.8
##  8 Bahrain      50.9  75.6
##  9 Bangladesh   37.5  64.1
## 10 Belgium      68    79.4
## # ... with 132 more rows
```
…
- The following is a new function:
  - Helper function `n()` counts the number of rows in a group
- Then for each year and continent:
  - count total lifeExp
  - Sort in descending order. 

--- .class #id

## On Your Own: RStudio Practice 

Your answer should look like:


```
## # A tibble: 60 x 3
## # Groups:   continent [5]
##    continent  year lifeExp_count
##    <fct>     <int>         <int>
##  1 Africa     1952            52
##  2 Africa     1957            52
##  3 Africa     1962            52
##  4 Africa     1967            52
##  5 Africa     1972            52
##  6 Africa     1977            52
##  7 Africa     1982            52
##  8 Africa     1987            52
##  9 Africa     1992            52
## 10 Africa     1997            52
## # ... with 50 more rows
```


We could also have used what is called the  `tally()` function:


```r
gapminder %>%
    group_by(country, year) %>%
    tally(sort = TRUE)
```

```
## # A tibble: 1,704 x 3
## # Groups:   country [142]
##    country      year     n
##    <fct>       <int> <int>
##  1 Afghanistan  1952     1
##  2 Afghanistan  1957     1
##  3 Afghanistan  1962     1
##  4 Afghanistan  1967     1
##  5 Afghanistan  1972     1
##  6 Afghanistan  1977     1
##  7 Afghanistan  1982     1
##  8 Afghanistan  1987     1
##  9 Afghanistan  1992     1
## 10 Afghanistan  1997     1
## # ... with 1,694 more rows
```
…
```r
gapminder %>% 
  select(country, gdpPercap, pop) %>%
  mutate(gdp = gdpPercap*pop)
```

--- .class #id

## Example: Mutate


```
## # A tibble: 1,704 x 4
##    country     gdpPercap      pop          gdp
##    <fct>           <dbl>    <int>        <dbl>
##  1 Afghanistan      779.  8425333  6567086330.
##  2 Afghanistan      821.  9240934  7585448670.
##  3 Afghanistan      853. 10267083  8758855797.
##  4 Afghanistan      836. 11537966  9648014150.
##  5 Afghanistan      740. 13079460  9678553274.
##  6 Afghanistan      786. 14880372 11697659231.
##  7 Afghanistan      978. 12881816 12598563401.
##  8 Afghanistan      852. 13867957 11820990309.
##  9 Afghanistan      649. 16317921 10595901589.
## 10 Afghanistan      635. 22227415 14121995875.
## # ... with 1,694 more rows
```
…
```r
gapminder %>% 
  select(country, gdpPercap, pop) %>%
  transmute(gdp = gdpPercap*pop)
```


--- .class #id

## Example: transmute



```
## # A tibble: 1,704 x 1
##             gdp
##           <dbl>
##  1  6567086330.
##  2  7585448670.
##  3  8758855797.
##  4  9648014150.
##  5  9678553274.
##  6 11697659231.
##  7 12598563401.
##  8 11820990309.
##  9 10595901589.
## 10 14121995875.
## # ... with 1,694 more rows
```
…
