…
```r
gapminder %>% filter(lifeExp>=49 & lifeExp<60)
```

--- .class #id


## Further Filtering


```
## # A tibble: 373 x 6
##    country    continent  year lifeExp      pop gdpPercap
##    <fct>      <fct>     <int>   <dbl>    <int>     <dbl>
##  1 Albania    Europe     1952    55.2  1282697     1601.
##  2 Albania    Europe     1957    59.3  1476505     1942.
##  3 Algeria    Africa     1967    51.4 12760499     3247.
##  4 Algeria    Africa     1972    54.5 14760787     4183.
##  5 Algeria    Africa     1977    58.0 17152804     4910.
##  6 Bahrain    Asia       1952    50.9   120447     9867.
##  7 Bahrain    Asia       1957    53.8   138655    11636.
##  8 Bahrain    Asia       1962    56.9   171863    12753.
##  9 Bahrain    Asia       1967    59.9   202182    14805.
## 10 Bangladesh Asia       1982    50.0 93074406      677.
## # ... with 363 more rows
```
…
- Choose only rows associated with
  - Uganda
  - Rwanda

--- .class #id


## On Your Own: RStudio Practice


Your end result should be:


```
## # A tibble: 24 x 6
##    country continent  year lifeExp     pop gdpPercap
##    <fct>   <fct>     <int>   <dbl>   <int>     <dbl>
##  1 Rwanda  Africa     1952    40   2534927      493.
##  2 Rwanda  Africa     1957    41.5 2822082      540.
##  3 Rwanda  Africa     1962    43   3051242      597.
##  4 Rwanda  Africa     1967    44.1 3451079      511.
##  5 Rwanda  Africa     1972    44.6 3992121      591.
##  6 Rwanda  Africa     1977    45   4657072      670.
##  7 Rwanda  Africa     1982    46.2 5507565      882.
##  8 Rwanda  Africa     1987    44.0 6349365      848.
##  9 Rwanda  Africa     1992    23.6 7290203      737.
## 10 Rwanda  Africa     1997    36.1 7212583      590.
## # ... with 14 more rows
```
…
```r
gapminder %>%
  select(country, lifeExp, year)
```


--- .class #id

## Selecting Example Continued


```
# A tibble: 1,704 x 3
       country lifeExp  year
        <fctr>   <dbl> <int>
 1 Afghanistan  28.801  1952
 2 Afghanistan  30.332  1957
 3 Afghanistan  31.997  1962
 4 Afghanistan  34.020  1967
 5 Afghanistan  36.088  1972
 6 Afghanistan  38.438  1977
 7 Afghanistan  39.854  1982
 8 Afghanistan  40.822  1987
 9 Afghanistan  41.674  1992
10 Afghanistan  41.763  1997
# ... with 1,694 more rows
```
…
```r
gapminder %>%
  select(-matches("co"))
```

--- .class #id

## Removing Columns



```
## # A tibble: 1,704 x 4
##     year lifeExp      pop gdpPercap
##    <int>   <dbl>    <int>     <dbl>
##  1  1952    28.8  8425333      779.
##  2  1957    30.3  9240934      821.
##  3  1962    32.0 10267083      853.
##  4  1967    34.0 11537966      836.
##  5  1972    36.1 13079460      740.
##  6  1977    38.4 14880372      786.
##  7  1982    39.9 12881816      978.
##  8  1987    40.8 13867957      852.
##  9  1992    41.7 16317921      649.
## 10  1997    41.8 22227415      635.
## # ... with 1,694 more rows
```
…
--- .class #id

## On Your Own: RStudio Practice


Your answer should look like:


```
## # A tibble: 1,704 x 1
##    gdpPercap
##        <dbl>
##  1      779.
##  2      821.
##  3      853.
##  4      836.
##  5      740.
##  6      786.
##  7      978.
##  8      852.
##  9      649.
## 10      635.
## # ... with 1,694 more rows
```
…
